oq,q,rvnm,stcd,stnm,tm,wptn,z
7730,6890,汉江,61802700,丹江口水库,1630422000000,6,165.29
7720,6890,汉江,61802700,丹江口水库,1630425600000,4,165.28
7730,6880,汉江,61802700,丹江口水库,1630429200000,4,165.27
7710,6450,汉江,61802700,丹江口水库,1630432800000,4,165.26
7720,6450,汉江,61802700,丹江口水库,1630436400000,6,165.26
7720,6450,汉江,61802700,丹江口水库,1630440000000,6,165.26
7720,6020,汉江,61802700,丹江口水库,1630443600000,4,165.25
7720,6450,汉江,61802700,丹江口水库,1630447200000,6,165.25
7720,6450,汉江,61802700,丹江口水库,1630450800000,4,165.24
7700,6450,汉江,61802700,丹江口水库,1630454400000,4,165.23
7700,6020,汉江,61802700,丹江口水库,1630458000000,4,165.22
7700,5590,汉江,61802700,丹江口水库,1630461600000,4,165.21
7710,6020,汉江,61802700,丹江口水库,1630465200000,6,165.21
7700,6010,汉江,61802700,丹江口水库,1630468800000,6,165.21
7720,6440,汉江,61802700,丹江口水库,1630472400000,6,165.21
7710,6440,汉江,61802700,丹江口水库,1630476000000,4,165.2
7710,6430,汉江,61802700,丹江口水库,1630479600000,4,165.19
7710,6430,汉江,61802700,丹江口水库,1630483200000,4,165.18
7710,6430,汉江,61802700,丹江口水库,1630486800000,6,165.18
7710,6430,汉江,61802700,丹江口水库,1630490400000,6,165.18
7700,6430,汉江,61802700,丹江口水库,1630494000000,6,165.18
7710,7280,汉江,61802700,丹江口水库,1630497600000,5,165.19
7720,8160,汉江,61802700,丹江口水库,1630501200000,5,165.2
7700,9440,汉江,61802700,丹江口水库,1630504800000,5,165.22
7710,10300,汉江,61802700,丹江口水库,1630508400000,5,165.24
7720,11200,汉江,61802700,丹江口水库,1630512000000,5,165.26
7720,12900,汉江,61802700,丹江口水库,1630515600000,5,165.3
7740,13700,汉江,61802700,丹江口水库,1630519200000,5,165.33
7730,14600,汉江,61802700,丹江口水库,1630522800000,5,165.36
7740,15400,汉江,61802700,丹江口水库,1630526400000,5,165.4
7740,15900,汉江,61802700,丹江口水库,1630530000000,5,165.43
7750,16400,汉江,61802700,丹江口水库,1630533600000,5,165.46
7750,15500,汉江,61802700,丹江口水库,1630537200000,5,165.48
7750,15100,汉江,61802700,丹江口水库,1630540800000,5,165.5
7680,14800,汉江,61802700,丹江口水库,1630544400000,5,165.55
7770,15100,汉江,61802700,丹江口水库,1630548000000,5,165.57
7780,15600,汉江,61802700,丹江口水库,1630551600000,5,165.61
7770,15100,汉江,61802700,丹江口水库,1630555200000,5,165.63
7780,15600,汉江,61802700,丹江口水库,1630558800000,5,165.66
7780,15600,汉江,61802700,丹江口水库,1630562400000,5,165.68
7790,14700,汉江,61802700,丹江口水库,1630566000000,5,165.71
7790,14700,汉江,61802700,丹江口水库,1630569600000,5,165.73
7800,14300,汉江,61802700,丹江口水库,1630573200000,5,165.76
7780,13900,汉江,61802700,丹江口水库,1630576800000,5,165.77
8650,13600,汉江,61802700,丹江口水库,1630580400000,5,165.79
8660,14100,汉江,61802700,丹江口水库,1630584000000,5,165.82
8650,13400,汉江,61802700,丹江口水库,1630587600000,5,165.83
8670,13600,汉江,61802700,丹江口水库,1630591200000,5,165.85
8670,12400,汉江,61802700,丹江口水库,1630594800000,6,165.85
8670,13000,汉江,61802700,丹江口水库,1630598400000,5,165.87
8670,12200,汉江,61802700,丹江口水库,1630602000000,6,165.87
8680,11800,汉江,61802700,丹江口水库,1630605600000,5,165.89
8680,11300,汉江,61802700,丹江口水库,1630609200000,6,165.89
8690,10500,汉江,61802700,丹江口水库,1630612800000,6,165.89
8690,10500,汉江,61802700,丹江口水库,1630616400000,6,165.89
8680,9580,汉江,61802700,丹江口水库,1630620000000,6,165.89
8680,10000,汉江,61802700,丹江口水库,1630623600000,5,165.9
8670,9140,汉江,61802700,丹江口水库,1630627200000,6,165.9
8680,9580,汉江,61802700,丹江口水库,1630630800000,5,165.91
8680,9580,汉江,61802700,丹江口水库,1630634400000,6,165.91
8680,9580,汉江,61802700,丹江口水库,1630638000000,6,165.91
8660,9130,汉江,61802700,丹江口水库,1630641600000,4,165.9
8670,8690,汉江,61802700,丹江口水库,1630645200000,6,165.9
8680,8250,汉江,61802700,丹江口水库,1630648800000,4,165.89
8690,7810,汉江,61802700,丹江口水库,1630652400000,6,165.89
8690,7820,汉江,61802700,丹江口水库,1630656000000,6,165.89
8700,7380,汉江,61802700,丹江口水库,1630659600000,4,165.88
8700,7390,汉江,61802700,丹江口水库,1630663200000,4,165.87
8710,6950,汉江,61802700,丹江口水库,1630666800000,4,165.86
8700,7400,汉江,61802700,丹江口水库,1630670400000,6,165.86
8700,7840,汉江,61802700,丹江口水库,1630674000000,5,165.87
8730,8280,汉江,61802700,丹江口水库,1630677600000,5,165.88
8720,8720,汉江,61802700,丹江口水库,1630681200000,6,165.88
8710,9170,汉江,61802700,丹江口水库,1630684800000,6,165.88
8710,9610,汉江,61802700,丹江口水库,1630688400000,6,165.88
8710,9610,汉江,61802700,丹江口水库,1630692000000,6,165.88
8720,8730,汉江,61802700,丹江口水库,1630695600000,4,165.87
8700,8290,汉江,61802700,丹江口水库,1630699200000,6,165.87
8710,8730,汉江,61802700,丹江口水库,1630702800000,5,165.88
8710,8730,汉江,61802700,丹江口水库,1630706400000,6,165.88
8700,8290,汉江,61802700,丹江口水库,1630710000000,4,165.87
8700,8280,汉江,61802700,丹江口水库,1630713600000,6,165.87
8710,8720,汉江,61802700,丹江口水库,1630717200000,6,165.87
8710,8280,汉江,61802700,丹江口水库,1630720800000,4,165.86
8700,7840,汉江,61802700,丹江口水库,1630724400000,6,165.86
8700,7840,汉江,61802700,丹江口水库,1630728000000,6,165.86
8700,8280,汉江,61802700,丹江口水库,1630731600000,6,165.86
8700,7840,汉江,61802700,丹江口水库,1630735200000,4,165.85
9560,8420,汉江,61802700,丹江口水库,1630738800000,5,165.86
9580,9000,汉江,61802700,丹江口水库,1630742400000,6,165.86
9570,9140,汉江,61802700,丹江口水库,1630746000000,6,165.86
9590,9730,汉江,61802700,丹江口水库,1630749600000,5,165.87
9580,10300,汉江,61802700,丹江口水库,1630753200000,5,165.88
9600,11800,汉江,61802700,丹江口水库,1630756800000,5,165.9
9590,11800,汉江,61802700,丹江口水库,1630760400000,5,165.91
9600,12700,汉江,61802700,丹江口水库,1630764000000,5,165.93
9600,13100,汉江,61802700,丹江口水库,1630767600000,5,165.94
9610,13600,汉江,61802700,丹江口水库,1630771200000,5,165.96
9620,13600,汉江,61802700,丹江口水库,1630774800000,5,165.97
9620,13100,汉江,61802700,丹江口水库,1630778400000,5,165.98
9620,13100,汉江,61802700,丹江口水库,1630782000000,5,165.99
9640,13500,汉江,61802700,丹江口水库,1630785600000,5,166.02
9650,14400,汉江,61802700,丹江口水库,1630789200000,5,166.05
9660,14400,汉江,61802700,丹江口水库,1630792800000,5,166.07
9660,15300,汉江,61802700,丹江口水库,1630796400000,5,166.1
9660,15700,汉江,61802700,丹江口水库,1630800000000,5,166.12
9670,15700,汉江,61802700,丹江口水库,1630803600000,5,166.13
9670,15400,汉江,61802700,丹江口水库,1630807200000,5,166.15
9690,15400,汉江,61802700,丹江口水库,1630810800000,5,166.18
9680,15400,汉江,61802700,丹江口水库,1630814400000,5,166.2
9610,15000,汉江,61802700,丹江口水库,1630818000000,5,166.22
9620,15000,汉江,61802700,丹江口水库,1630821600000,5,166.24
9620,15400,汉江,61802700,丹江口水库,1630825200000,5,166.26
9720,15000,汉江,61802700,丹江口水库,1630828800000,5,166.27
9710,14600,汉江,61802700,丹江口水库,1630832400000,5,166.29
9720,14600,汉江,61802700,丹江口水库,1630836000000,5,166.31
9720,14100,汉江,61802700,丹江口水库,1630839600000,5,166.32
9730,14100,汉江,61802700,丹江口水库,1630843200000,5,166.34
9740,14100,汉江,61802700,丹江口水库,1630846800000,5,166.36
9750,13700,汉江,61802700,丹江口水库,1630850400000,5,166.38
9750,14200,汉江,61802700,丹江口水库,1630854000000,5,166.39
9750,13800,汉江,61802700,丹江口水库,1630857600000,5,166.4
9760,14200,汉江,61802700,丹江口水库,1630861200000,5,166.42
9760,14200,汉江,61802700,丹江口水库,1630864800000,5,166.44
9770,13800,汉江,61802700,丹江口水库,1630868400000,5,166.45
9770,13300,汉江,61802700,丹江口水库,1630872000000,5,166.46
9770,13800,汉江,61802700,丹江口水库,1630875600000,5,166.48
9790,14200,汉江,61802700,丹江口水库,1630879200000,5,166.5
9790,13700,汉江,61802700,丹江口水库,1630882800000,5,166.51
9800,13800,汉江,61802700,丹江口水库,1630886400000,5,166.53
9800,14200,汉江,61802700,丹江口水库,1630890000000,5,166.55
9810,15100,汉江,61802700,丹江口水库,1630893600000,5,166.58
9820,14700,汉江,61802700,丹江口水库,1630897200000,5,166.59
9830,15200,汉江,61802700,丹江口水库,1630900800000,5,166.62
9830,15600,汉江,61802700,丹江口水库,1630904400000,5,166.64
9850,16100,汉江,61802700,丹江口水库,1630908000000,5,166.67
9840,16100,汉江,61802700,丹江口水库,1630911600000,5,166.69
9850,16100,汉江,61802700,丹江口水库,1630915200000,5,166.72
9860,17000,汉江,61802700,丹江口水库,1630918800000,5,166.75
9880,17400,汉江,61802700,丹江口水库,1630922400000,5,166.79
8940,18300,汉江,61802700,丹江口水库,1630926000000,5,166.83
9900,17900,汉江,61802700,丹江口水库,1630929600000,5,166.85
9910,18300,汉江,61802700,丹江口水库,1630933200000,5,166.88
9920,18800,汉江,61802700,丹江口水库,1630936800000,5,166.92
9930,18800,汉江,61802700,丹江口水库,1630940400000,5,166.95
9940,18300,汉江,61802700,丹江口水库,1630944000000,5,166.98
9960,18000,汉江,61802700,丹江口水库,1630947600000,5,167.01
9970,18500,汉江,61802700,丹江口水库,1630951200000,5,167.04
9970,18000,汉江,61802700,丹江口水库,1630954800000,5,167.06
9970,17200,汉江,61802700,丹江口水库,1630958400000,5,167.08
9990,16700,汉江,61802700,丹江口水库,1630962000000,5,167.1
10000,16800,汉江,61802700,丹江口水库,1630965600000,5,167.13
10000,16700,汉江,61802700,丹江口水库,1630969200000,5,167.16
10000,16300,汉江,61802700,丹江口水库,1630972800000,5,167.18
10000,16700,汉江,61802700,丹江口水库,1630976400000,5,167.21
10000,16700,汉江,61802700,丹江口水库,1630980000000,5,167.23
10000,16700,汉江,61802700,丹江口水库,1630983600000,5,167.25
10100,16300,汉江,61802700,丹江口水库,1630987200000,5,167.27
10100,14100,汉江,61802700,丹江口水库,1630994400000,5,167.31
10100,14900,汉江,61802700,丹江口水库,1630998000000,5,167.32
9990,15000,汉江,61802700,丹江口水库,1631001600000,5,167.34
10100,15000,汉江,61802700,丹江口水库,1631005200000,5,167.36
10100,14600,汉江,61802700,丹江口水库,1631008800000,5,167.37
10100,14200,汉江,61802700,丹江口水库,1631012400000,5,167.38
10100,14200,汉江,61802700,丹江口水库,1631016000000,5,167.4
10000,11000,汉江,61802700,丹江口水库,1631023200000,5,167.43
10100,13700,汉江,61802700,丹江口水库,1631026800000,5,167.44
10100,13700,汉江,61802700,丹江口水库,1631034000000,5,167.46
10100,12800,汉江,61802700,丹江口水库,1631037600000,6,167.46
10100,12400,汉江,61802700,丹江口水库,1631041200000,6,167.46
10100,11500,汉江,61802700,丹江口水库,1631044800000,6,167.46
10100,10100,汉江,61802700,丹江口水库,1631048400000,4,167.44
10100,9210,汉江,61802700,丹江口水库,1631052000000,4,167.43
10100,8300,汉江,61802700,丹江口水库,1631055600000,4,167.42
10100,7400,汉江,61802700,丹江口水库,1631059200000,4,167.4
10100,6940,汉江,61802700,丹江口水库,1631062800000,4,167.39
10100,6040,汉江,61802700,丹江口水库,1631066400000,4,167.37
9080,6370,汉江,61802700,丹江口水库,1631070000000,4,167.36
9070,4830,汉江,61802700,丹江口水库,1631073600000,4,167.32
9020,3770,汉江,61802700,丹江口水库,1631077200000,4,167.29
8030,2690,汉江,61802700,丹江口水库,1631080800000,4,167.25
8010,1440,汉江,61802700,丹江口水库,1631084400000,4,167.22
8010,2000,汉江,61802700,丹江口水库,1631088000000,6,167.22
8020,3130,汉江,61802700,丹江口水库,1631091600000,5,167.24
8010,4320,汉江,61802700,丹江口水库,1631095200000,4,167.23
8030,6390,汉江,61802700,丹江口水库,1631098800000,5,167.25
7160,7000,汉江,61802700,丹江口水库,1631102400000,4,167.23
7160,7750,汉江,61802700,丹江口水库,1631106000000,4,167.22
7160,7610,汉江,61802700,丹江口水库,1631109600000,6,167.22
7160,6570,汉江,61802700,丹江口水库,1631113200000,6,167.22
7160,6880,汉江,61802700,丹江口水库,1631116800000,6,167.22
7160,5380,汉江,61802700,丹江口水库,1631120400000,4,167.21
7160,6720,汉江,61802700,丹江口水库,1631124000000,5,167.22
6290,5690,汉江,61802700,丹江口水库,1631127600000,4,167.19
6280,5100,汉江,61802700,丹江口水库,1631131200000,4,167.18
6290,4950,汉江,61802700,丹江口水库,1631134800000,6,167.18
6300,4810,汉江,61802700,丹江口水库,1631138400000,6,167.18
6280,5120,汉江,61802700,丹江口水库,1631142000000,6,167.18
6290,4970,汉江,61802700,丹江口水库,1631145600000,5,167.19
6310,6760,汉江,61802700,丹江口水库,1631149200000,5,167.2
6300,6770,汉江,61802700,丹江口水库,1631152800000,4,167.19
6290,6770,汉江,61802700,丹江口水库,1631156400000,6,167.19
6290,6310,汉江,61802700,丹江口水库,1631160000000,4,167.18
6290,6760,汉江,61802700,丹江口水库,1631163600000,5,167.19
5440,5280,汉江,61802700,丹江口水库,1631167200000,4,167.17
5440,4240,汉江,61802700,丹江口水库,1631170800000,4,167.16
5450,4090,汉江,61802700,丹江口水库,1631174400000,4,167.15
5340,3950,汉江,61802700,丹江口水库,1631178000000,6,167.15
5430,4250,汉江,61802700,丹江口水库,1631181600000,6,167.15
5440,3660,汉江,61802700,丹江口水库,1631185200000,6,167.15
4450,5430,汉江,61802700,丹江口水库,1631188800000,5,167.17
4450,5270,汉江,61802700,丹江口水库,1631192400000,4,167.16
4440,5550,汉江,61802700,丹江口水库,1631196000000,6,167.16
4440,5830,汉江,61802700,丹江口水库,1631199600000,5,167.17
4440,5220,汉江,61802700,丹江口水库,1631203200000,4,167.16
4430,4150,汉江,61802700,丹江口水库,1631206800000,4,167.14
4430,2660,汉江,61802700,丹江口水库,1631210400000,4,167.13
4430,4000,汉江,61802700,丹江口水库,1631214000000,5,167.15
4440,4000,汉江,61802700,丹江口水库,1631217600000,6,167.15
4440,3550,汉江,61802700,丹江口水库,1631221200000,6,167.15
4430,4000,汉江,61802700,丹江口水库,1631224800000,6,167.15
4430,4450,汉江,61802700,丹江口水库,1631228400000,4,167.14
4420,4450,汉江,61802700,丹江口水库,1631232000000,4,167.13
4420,3550,汉江,61802700,丹江口水库,1631235600000,6,167.13
4430,3550,汉江,61802700,丹江口水库,1631239200000,6,167.13
4430,4000,汉江,61802700,丹江口水库,1631242800000,5,167.14
4430,4450,汉江,61802700,丹江口水库,1631246400000,5,167.15
4420,4890,汉江,61802700,丹江口水库,1631250000000,6,167.15
3560,4310,汉江,61802700,丹江口水库,1631253600000,4,167.13
3560,3720,汉江,61802700,丹江口水库,1631257200000,4,167.12
3570,3570,汉江,61802700,丹江口水库,1631260800000,6,167.12
3560,2980,汉江,61802700,丹江口水库,1631264400000,6,167.12
3560,2830,汉江,61802700,丹江口水库,1631268000000,5,167.13
3560,2690,汉江,61802700,丹江口水库,1631271600000,6,167.13
3560,4480,汉江,61802700,丹江口水库,1631275200000,5,167.15
2710,4340,汉江,61802700,丹江口水库,1631278800000,4,167.14
2710,4200,汉江,61802700,丹江口水库,1631282400000,6,167.14
2710,3610,汉江,61802700,丹江口水库,1631286000000,4,167.13
2710,3020,汉江,61802700,丹江口水库,1631289600000,6,167.13
2690,3320,汉江,61802700,丹江口水库,1631293200000,5,167.14
2700,1830,汉江,61802700,丹江口水库,1631296800000,4,167.13
2690,2720,汉江,61802700,丹江口水库,1631300400000,5,167.14
2690,2720,汉江,61802700,丹江口水库,1631304000000,6,167.14
2710,3160,汉江,61802700,丹江口水库,1631307600000,6,167.14
2700,3160,汉江,61802700,丹江口水库,1631311200000,6,167.14
2690,3160,汉江,61802700,丹江口水库,1631314800000,5,167.15
2700,3160,汉江,61802700,丹江口水库,1631318400000,4,167.14
2700,3160,汉江,61802700,丹江口水库,1631322000000,5,167.15
2690,3160,汉江,61802700,丹江口水库,1631325600000,6,167.15
2710,4060,汉江,61802700,丹江口水库,1631329200000,5,167.17
2710,4510,汉江,61802700,丹江口水库,1631332800000,5,167.18
2710,3620,汉江,61802700,丹江口水库,1631336400000,4,167.17
2710,3170,汉江,61802700,丹江口水库,1631340000000,4,167.15
2710,2720,汉江,61802700,丹江口水库,1631343600000,6,167.15
2710,2730,汉江,61802700,丹江口水库,1631347200000,6,167.15
2710,1830,汉江,61802700,丹江口水库,1631350800000,6,167.15
2700,1380,汉江,61802700,丹江口水库,1631354400000,6,167.15
2700,2730,汉江,61802700,丹江口水库,1631358000000,5,167.17
2700,3620,汉江,61802700,丹江口水库,1631361600000,6,167.17
2710,3620,汉江,61802700,丹江口水库,1631365200000,6,167.17
2710,3620,汉江,61802700,丹江口水库,1631368800000,6,167.17
2710,3620,汉江,61802700,丹江口水库,1631372400000,6,167.17
2700,3620,汉江,61802700,丹江口水库,1631376000000,6,167.17
2700,2720,汉江,61802700,丹江口水库,1631379600000,6,167.17
2710,3170,汉江,61802700,丹江口水库,1631383200000,5,167.18
2710,3180,汉江,61802700,丹江口水库,1631386800000,6,167.18
2700,3180,汉江,61802700,丹江口水库,1631390400000,6,167.18
2710,3180,汉江,61802700,丹江口水库,1631394000000,6,167.18
2710,3180,汉江,61802700,丹江口水库,1631397600000,6,167.18
2710,3180,汉江,61802700,丹江口水库,1631401200000,6,167.18
2710,2730,汉江,61802700,丹江口水库,1631404800000,6,167.18
2710,3180,汉江,61802700,丹江口水库,1631408400000,5,167.19
2710,3620,汉江,61802700,丹江口水库,1631412000000,5,167.2
2710,3620,汉江,61802700,丹江口水库,1631415600000,6,167.2
2700,4070,汉江,61802700,丹江口水库,1631419200000,5,167.21
2710,4070,汉江,61802700,丹江口水库,1631422800000,6,167.21
2720,4520,汉江,61802700,丹江口水库,1631426400000,5,167.22
1860,3480,汉江,61802700,丹江口水库,1631430000000,4,167.21
1850,2450,汉江,61802700,丹江口水库,1631433600000,4,167.2
1850,2300,汉江,61802700,丹江口水库,1631437200000,6,167.2
1840,1710,汉江,61802700,丹江口水库,1631440800000,6,167.2
1840,2010,汉江,61802700,丹江口水库,1631444400000,5,167.21
1850,1870,汉江,61802700,丹江口水库,1631448000000,5,167.22
1850,2760,汉江,61802700,丹江口水库,1631451600000,5,167.23
1850,3210,汉江,61802700,丹江口水库,1631455200000,6,167.23
1850,3660,汉江,61802700,丹江口水库,1631458800000,5,167.24
1840,3660,汉江,61802700,丹江口水库,1631462400000,6,167.24
1840,3210,汉江,61802700,丹江口水库,1631466000000,6,167.24
1840,3210,汉江,61802700,丹江口水库,1631469600000,5,167.25
1840,2760,汉江,61802700,丹江口水库,1631473200000,6,167.25
1850,3210,汉江,61802700,丹江口水库,1631476800000,5,167.26
1850,2760,汉江,61802700,丹江口水库,1631480400000,6,167.26
1850,3210,汉江,61802700,丹江口水库,1631484000000,5,167.27
1850,3210,汉江,61802700,丹江口水库,1631487600000,6,167.27
1840,2310,汉江,61802700,丹江口水库,1631491200000,4,167.26
1840,2310,汉江,61802700,丹江口水库,1631494800000,6,167.26
1840,1860,汉江,61802700,丹江口水库,1631498400000,6,167.26
1830,2310,汉江,61802700,丹江口水库,1631502000000,5,167.27
1850,3200,汉江,61802700,丹江口水库,1631505600000,5,167.3
1850,3200,汉江,61802700,丹江口水库,1631509200000,6,167.3
1850,3210,汉江,61802700,丹江口水库,1631512800000,4,167.29
1840,2760,汉江,61802700,丹江口水库,1631516400000,4,167.28
1840,3210,汉江,61802700,丹江口水库,1631520000000,5,167.29
1840,2760,汉江,61802700,丹江口水库,1631523600000,6,167.29
1840,1860,汉江,61802700,丹江口水库,1631527200000,5,167.3
1840,1860,汉江,61802700,丹江口水库,1631530800000,6,167.3
1840,2750,汉江,61802700,丹江口水库,1631534400000,5,167.31
1840,3200,汉江,61802700,丹江口水库,1631538000000,6,167.31
1840,2750,汉江,61802700,丹江口水库,1631541600000,6,167.31
1850,2750,汉江,61802700,丹江口水库,1631545200000,6,167.31
1840,2310,汉江,61802700,丹江口水库,1631548800000,6,167.31
1850,2770,汉江,61802700,丹江口水库,1631552400000,5,167.32
1850,2310,汉江,61802700,丹江口水库,1631556000000,6,167.32
1830,2310,汉江,61802700,丹江口水库,1631559600000,6,167.32
1840,2770,汉江,61802700,丹江口水库,1631563200000,5,167.33
1850,2770,汉江,61802700,丹江口水库,1631566800000,6,167.33
1840,2770,汉江,61802700,丹江口水库,1631570400000,6,167.33
1840,2310,汉江,61802700,丹江口水库,1631574000000,6,167.33
1850,2310,汉江,61802700,丹江口水库,1631577600000,6,167.33
1840,2310,汉江,61802700,丹江口水库,1631581200000,6,167.33
1840,1860,汉江,61802700,丹江口水库,1631584800000,6,167.33
1850,2310,汉江,61802700,丹江口水库,1631588400000,5,167.34
1840,3220,汉江,61802700,丹江口水库,1631592000000,5,167.36
1840,2760,汉江,61802700,丹江口水库,1631595600000,4,167.35
2850,2470,汉江,61802700,丹江口水库,1631599200000,4,167.34
3720,2780,汉江,61802700,丹江口水库,1631602800000,6,167.34
3720,2640,汉江,61802700,丹江口水库,1631606400000,4,167.33
3730,2050,汉江,61802700,丹江口水库,1631610000000,4,167.32
3730,1460,汉江,61802700,丹江口水库,1631613600000,6,167.32
3740,2230,汉江,61802700,丹江口水库,1631617200000,6,167.32
3740,2830,汉江,61802700,丹江口水库,1631620800000,6,167.32
3720,2840,汉江,61802700,丹江口水库,1631624400000,6,167.32
3720,2840,汉江,61802700,丹江口水库,1631628000000,4,167.31
3730,3290,汉江,61802700,丹江口水库,1631631600000,6,167.31
3720,2840,汉江,61802700,丹江口水库,1631635200000,4,167.3
3720,2840,汉江,61802700,丹江口水库,1631638800000,6,167.3
3730,2840,汉江,61802700,丹江口水库,1631642400000,6,167.3
3730,2400,汉江,61802700,丹江口水库,1631646000000,4,167.29
3730,2860,汉江,61802700,丹江口水库,1631649600000,6,167.29
3730,2860,汉江,61802700,丹江口水库,1631653200000,6,167.29
3740,2860,汉江,61802700,丹江口水库,1631656800000,4,167.28
3740,2410,汉江,61802700,丹江口水库,1631660400000,4,167.27
3730,2410,汉江,61802700,丹江口水库,1631664000000,6,167.27
3720,2400,汉江,61802700,丹江口水库,1631667600000,4,167.26
3720,2390,汉江,61802700,丹江口水库,1631671200000,6,167.26
3730,2390,汉江,61802700,丹江口水库,1631674800000,6,167.26
3730,2390,汉江,61802700,丹江口水库,1631678400000,4,167.25
3720,2840,汉江,61802700,丹江口水库,1631682000000,6,167.25
3720,1940,汉江,61802700,丹江口水库,1631685600000,4,167.23
4720,2100,汉江,61802700,丹江口水库,1631689200000,4,167.22
4720,2270,汉江,61802700,丹江口水库,1631692800000,6,167.22
4720,1980,汉江,61802700,丹江口水库,1631696400000,4,167.21
4720,2600,汉江,61802700,丹江口水库,1631700000000,6,167.21
4730,2320,汉江,61802700,丹江口水库,1631703600000,4,167.2
4730,3380,汉江,61802700,丹江口水库,1631707200000,6,167.2
4720,3400,汉江,61802700,丹江口水库,1631710800000,4,167.19
4720,2950,汉江,61802700,丹江口水库,1631714400000,4,167.18
4720,2950,汉江,61802700,丹江口水库,1631718000000,4,167.17
4720,2500,汉江,61802700,丹江口水库,1631721600000,4,167.16
4720,2940,汉江,61802700,丹江口水库,1631725200000,6,167.16
4720,2490,汉江,61802700,丹江口水库,1631728800000,4,167.15
4700,2490,汉江,61802700,丹江口水库,1631732400000,4,167.14
4710,2930,汉江,61802700,丹江口水库,1631736000000,6,167.14
4710,2930,汉江,61802700,丹江口水库,1631739600000,4,167.13
4710,2930,汉江,61802700,丹江口水库,1631743200000,4,167.12
4710,2480,汉江,61802700,丹江口水库,1631746800000,4,167.11
4700,2480,汉江,61802700,丹江口水库,1631750400000,4,167.1
4690,2480,汉江,61802700,丹江口水库,1631754000000,4,167.09
4700,2480,汉江,61802700,丹江口水库,1631757600000,6,167.09
4700,2480,汉江,61802700,丹江口水库,1631761200000,4,167.08
4700,2470,汉江,61802700,丹江口水库,1631764800000,4,167.07
4690,1570,汉江,61802700,丹江口水库,1631768400000,4,167.04
5670,2180,汉江,61802700,丹江口水库,1631772000000,6,167.04
5670,2790,汉江,61802700,丹江口水库,1631775600000,6,167.04
5670,2050,汉江,61802700,丹江口水库,1631779200000,4,167.02
5670,2220,汉江,61802700,丹江口水库,1631782800000,4,167.01
5670,1890,汉江,61802700,丹江口水库,1631786400000,4,166.99
6520,3530,汉江,61802700,丹江口水库,1631790000000,6,166.99
6510,3230,汉江,61802700,丹江口水库,1631793600000,4,166.98
6510,2480,汉江,61802700,丹江口水库,1631797200000,4,166.96
6500,3080,汉江,61802700,丹江口水库,1631800800000,4,166.95
6500,2780,汉江,61802700,丹江口水库,1631804400000,4,166.93
6480,3410,汉江,61802700,丹江口水库,1631808000000,4,166.92
6490,2520,汉江,61802700,丹江口水库,1631811600000,4,166.9
6480,2520,汉江,61802700,丹江口水库,1631815200000,4,166.89
6480,3400,汉江,61802700,丹江口水库,1631818800000,6,166.89
6480,2510,汉江,61802700,丹江口水库,1631822400000,4,166.86
6490,2060,汉江,61802700,丹江口水库,1631826000000,4,166.83
6470,2060,汉江,61802700,丹江口水库,1631829600000,4,166.82
6460,2500,汉江,61802700,丹江口水库,1631833200000,4,166.81
6470,2490,汉江,61802700,丹江口水库,1631836800000,4,166.8
6460,2050,汉江,61802700,丹江口水库,1631840400000,4,166.79
6460,2930,汉江,61802700,丹江口水库,1631844000000,4,166.78
6460,3370,汉江,61802700,丹江口水库,1631847600000,4,166.76
6450,2920,汉江,61802700,丹江口水库,1631851200000,4,166.74
6440,2470,汉江,61802700,丹江口水库,1631854800000,4,166.72
6440,2470,汉江,61802700,丹江口水库,1631858400000,4,166.71
6430,2460,汉江,61802700,丹江口水库,1631862000000,4,166.7
6430,2900,汉江,61802700,丹江口水库,1631865600000,6,166.7
6430,3340,汉江,61802700,丹江口水库,1631869200000,4,166.69
6420,3780,汉江,61802700,丹江口水库,1631872800000,4,166.68
6420,3780,汉江,61802700,丹江口水库,1631876400000,4,166.66
6410,3330,汉江,61802700,丹江口水库,1631880000000,4,166.64
6420,3330,汉江,61802700,丹江口水库,1631883600000,4,166.63
6410,2880,汉江,61802700,丹江口水库,1631887200000,4,166.62
6410,3770,汉江,61802700,丹江口水库,1631890800000,5,166.63
6420,4210,汉江,61802700,丹江口水库,1631894400000,6,166.63
6420,4650,汉江,61802700,丹江口水库,1631898000000,4,166.62
6420,5540,汉江,61802700,丹江口水库,1631901600000,6,166.62
6420,5540,汉江,61802700,丹江口水库,1631905200000,4,166.61
6410,5980,汉江,61802700,丹江口水库,1631908800000,6,166.61
6400,5090,汉江,61802700,丹江口水库,1631912400000,4,166.6
6420,5530,汉江,61802700,丹江口水库,1631916000000,5,166.61
6400,6420,汉江,61802700,丹江口水库,1631919600000,5,166.62
6420,6870,汉江,61802700,丹江口水库,1631923200000,5,166.63
6340,7750,汉江,61802700,丹江口水库,1631926800000,5,166.64
6330,8200,汉江,61802700,丹江口水库,1631930400000,5,166.65
6340,8650,汉江,61802700,丹江口水库,1631934000000,6,166.65
6420,8650,汉江,61802700,丹江口水库,1631937600000,5,166.66
6420,8210,汉江,61802700,丹江口水库,1631941200000,6,166.66
6430,8650,汉江,61802700,丹江口水库,1631944800000,5,166.68
6430,8210,汉江,61802700,丹江口水库,1631948400000,6,166.68
6430,8210,汉江,61802700,丹江口水库,1631952000000,5,166.69
6450,9100,汉江,61802700,丹江口水库,1631955600000,5,166.71
6440,9110,汉江,61802700,丹江口水库,1631959200000,5,166.72
6430,9560,汉江,61802700,丹江口水库,1631962800000,5,166.73
6460,9120,汉江,61802700,丹江口水库,1631966400000,5,166.74
6460,9570,汉江,61802700,丹江口水库,1631970000000,5,166.75
6450,9570,汉江,61802700,丹江口水库,1631973600000,5,166.76
6440,8680,汉江,61802700,丹江口水库,1631977200000,6,166.76
6460,8680,汉江,61802700,丹江口水库,1631980800000,5,166.77
6460,8240,汉江,61802700,丹江口水库,1631984400000,6,166.77
6460,7800,汉江,61802700,丹江口水库,1631988000000,6,166.77
6460,7800,汉江,61802700,丹江口水库,1631991600000,5,166.78
6460,7800,汉江,61802700,丹江口水库,1631995200000,5,166.79
6470,8250,汉江,61802700,丹江口水库,1631998800000,5,166.8
6480,8250,汉江,61802700,丹江口水库,1632002400000,5,166.81
6480,9580,汉江,61802700,丹江口水库,1632006000000,5,166.84
6480,10000,汉江,61802700,丹江口水库,1632009600000,5,166.85
6490,10900,汉江,61802700,丹江口水库,1632013200000,5,166.88
6490,11800,汉江,61802700,丹江口水库,1632016800000,5,166.91
6510,13200,汉江,61802700,丹江口水库,1632020400000,5,166.95
6500,14100,汉江,61802700,丹江口水库,1632024000000,5,166.98
6530,15000,汉江,61802700,丹江口水库,1632027600000,5,167.03
6550,17300,汉江,61802700,丹江口水库,1632031200000,5,167.09
6580,18600,汉江,61802700,丹江口水库,1632034800000,5,167.15
6590,20000,汉江,61802700,丹江口水库,1632038400000,5,167.21
6620,21000,汉江,61802700,丹江口水库,1632042000000,5,167.27
6640,22300,汉江,61802700,丹江口水库,1632045600000,5,167.33
6650,22800,汉江,61802700,丹江口水库,1632049200000,5,167.39
6680,22400,汉江,61802700,丹江口水库,1632052800000,5,167.44
6690,22500,汉江,61802700,丹江口水库,1632056400000,5,167.5
6720,22500,汉江,61802700,丹江口水库,1632060000000,5,167.56
6720,22100,汉江,61802700,丹江口水库,1632063600000,5,167.61
6740,21700,汉江,61802700,丹江口水库,1632067200000,5,167.66
6760,21200,汉江,61802700,丹江口水库,1632070800000,5,167.71
6780,20800,汉江,61802700,丹江口水库,1632074400000,5,167.75
6800,20400,汉江,61802700,丹江口水库,1632078000000,5,167.8
6790,19500,汉江,61802700,丹江口水库,1632081600000,5,167.84
6810,19100,汉江,61802700,丹江口水库,1632085200000,5,167.88
6830,18600,汉江,61802700,丹江口水库,1632088800000,5,167.92
6830,17700,汉江,61802700,丹江口水库,1632092400000,5,167.95
6850,17700,汉江,61802700,丹江口水库,1632096000000,5,167.99
6840,17300,汉江,61802700,丹江口水库,1632099600000,5,168.03
6850,16900,汉江,61802700,丹江口水库,1632103200000,5,168.06
6870,16500,汉江,61802700,丹江口水库,1632106800000,5,168.09
6880,16100,汉江,61802700,丹江口水库,1632110400000,5,168.12
6890,15700,汉江,61802700,丹江口水库,1632114000000,5,168.14
6900,14800,汉江,61802700,丹江口水库,1632117600000,5,168.16
6890,13300,汉江,61802700,丹江口水库,1632121200000,5,168.17
6890,12400,汉江,61802700,丹江口水库,1632124800000,5,168.18
6910,11500,汉江,61802700,丹江口水库,1632128400000,5,168.19
6900,10600,汉江,61802700,丹江口水库,1632132000000,5,168.2
6920,10600,汉江,61802700,丹江口水库,1632135600000,5,168.22
6910,9210,汉江,61802700,丹江口水库,1632139200000,4,168.21
7760,10300,汉江,61802700,丹江口水库,1632142800000,5,168.24
7790,10400,汉江,61802700,丹江口水库,1632146400000,5,168.25
7790,9650,汉江,61802700,丹江口水库,1632150000000,4,168.24
7790,9350,汉江,61802700,丹江口水库,1632153600000,6,168.24
7780,8110,汉江,61802700,丹江口水库,1632157200000,4,168.23
7780,8710,汉江,61802700,丹江口水库,1632160800000,6,168.23
7780,7330,汉江,61802700,丹江口水库,1632164400000,6,168.23
7780,7340,汉江,61802700,丹江口水库,1632168000000,5,168.24
7790,8260,汉江,61802700,丹江口水库,1632171600000,5,168.25
7790,8260,汉江,61802700,丹江口水库,1632175200000,6,168.25
7790,8720,汉江,61802700,丹江口水库,1632178800000,6,168.25
7800,8730,汉江,61802700,丹江口水库,1632182400000,6,168.25
7800,8730,汉江,61802700,丹江口水库,1632186000000,6,168.25
7800,8270,汉江,61802700,丹江口水库,1632189600000,6,168.25
7790,7810,汉江,61802700,丹江口水库,1632193200000,6,168.25
7790,7810,汉江,61802700,丹江口水库,1632196800000,6,168.25
7790,7810,汉江,61802700,丹江口水库,1632200400000,6,168.25
7800,7810,汉江,61802700,丹江口水库,1632204000000,6,168.25
7800,7810,汉江,61802700,丹江口水库,1632207600000,6,168.25
7790,7810,汉江,61802700,丹江口水库,1632211200000,6,168.25
7790,7810,汉江,61802700,丹江口水库,1632214800000,6,168.25
7790,7810,汉江,61802700,丹江口水库,1632218400000,6,168.25
7800,7810,汉江,61802700,丹江口水库,1632222000000,6,168.25
7780,7810,汉江,61802700,丹江口水库,1632225600000,6,168.25
7800,7810,汉江,61802700,丹江口水库,1632229200000,6,168.25
7790,7810,汉江,61802700,丹江口水库,1632232800000,6,168.25
7770,7340,汉江,61802700,丹江口水库,1632236400000,4,168.24
7780,7340,汉江,61802700,丹江口水库,1632240000000,6,168.24
7780,7340,汉江,61802700,丹江口水库,1632243600000,6,168.24
7780,7340,汉江,61802700,丹江口水库,1632247200000,6,168.24
7780,7340,汉江,61802700,丹江口水库,1632250800000,6,168.24
7780,6870,汉江,61802700,丹江口水库,1632254400000,4,168.23
7770,6410,汉江,61802700,丹江口水库,1632258000000,4,168.21
7770,5950,汉江,61802700,丹江口水库,1632261600000,4,168.2
7770,5500,汉江,61802700,丹江口水库,1632265200000,4,168.19
7770,5040,汉江,61802700,丹江口水库,1632268800000,4,168.18
7770,4580,汉江,61802700,丹江口水库,1632272400000,4,168.17
7770,4580,汉江,61802700,丹江口水库,1632276000000,4,168.16
7760,5040,汉江,61802700,丹江口水库,1632279600000,4,168.15
7760,5040,汉江,61802700,丹江口水库,1632283200000,4,168.14
7760,5020,汉江,61802700,丹江口水库,1632286800000,4,168.13
7750,4560,汉江,61802700,丹江口水库,1632290400000,4,168.11
7750,4090,汉江,61802700,丹江口水库,1632294000000,4,168.09
7740,4080,汉江,61802700,丹江口水库,1632297600000,4,168.08
7650,2860,汉江,61802700,丹江口水库,1632301200000,4,168.07
7720,4070,汉江,61802700,丹江口水库,1632304800000,4,168.06
7730,3610,汉江,61802700,丹江口水库,1632308400000,4,168.04
7710,3590,汉江,61802700,丹江口水库,1632312000000,4,168.02
7720,4060,汉江,61802700,丹江口水库,1632315600000,4,168.01
7700,4050,汉江,61802700,丹江口水库,1632319200000,4,168
7700,4000,汉江,61802700,丹江口水库,1632322800000,4,167.99
7700,3550,汉江,61802700,丹江口水库,1632326400000,4,167.97
7680,3560,汉江,61802700,丹江口水库,1632330000000,4,167.95
7690,4030,汉江,61802700,丹江口水库,1632333600000,4,167.94
7680,4030,汉江,61802700,丹江口水库,1632337200000,4,167.93
7680,4040,汉江,61802700,丹江口水库,1632340800000,4,167.92
7670,4530,汉江,61802700,丹江口水库,1632344400000,6,167.92
7670,4980,汉江,61802700,丹江口水库,1632348000000,4,167.91
7670,4980,汉江,61802700,丹江口水库,1632351600000,4,167.89
7660,4520,汉江,61802700,丹江口水库,1632355200000,4,167.87
7660,4520,汉江,61802700,丹江口水库,1632358800000,4,167.86
7670,4060,汉江,61802700,丹江口水库,1632362400000,4,167.84
7660,3150,汉江,61802700,丹江口水库,1632366000000,4,167.82
7660,3150,汉江,61802700,丹江口水库,1632369600000,4,167.81
7640,3600,汉江,61802700,丹江口水库,1632373200000,4,167.8
7640,4030,汉江,61802700,丹江口水库,1632376800000,4,167.79
7620,3560,汉江,61802700,丹江口水库,1632380400000,4,167.77
7630,3560,汉江,61802700,丹江口水库,1632384000000,4,167.75
7620,4000,汉江,61802700,丹江口水库,1632387600000,4,167.74
7620,3530,汉江,61802700,丹江口水库,1632391200000,4,167.72
7620,3520,汉江,61802700,丹江口水库,1632394800000,4,167.71
7610,3530,汉江,61802700,丹江口水库,1632398400000,4,167.7
7610,4000,汉江,61802700,丹江口水库,1632402000000,4,167.69
7600,4450,汉江,61802700,丹江口水库,1632405600000,4,167.68
7610,3990,汉江,61802700,丹江口水库,1632409200000,4,167.66
7600,4900,汉江,61802700,丹江口水库,1632412800000,6,167.66
7580,4440,汉江,61802700,丹江口水库,1632416400000,4,167.64
7580,3980,汉江,61802700,丹江口水库,1632420000000,4,167.62
7570,3510,汉江,61802700,丹江口水库,1632423600000,4,167.6
7560,3510,汉江,61802700,丹江口水库,1632427200000,4,167.59
7560,3510,汉江,61802700,丹江口水库,1632430800000,4,167.57
7550,3050,汉江,61802700,丹江口水库,1632434400000,4,167.56
7550,3500,汉江,61802700,丹江口水库,1632438000000,4,167.55
7560,3950,汉江,61802700,丹江口水库,1632441600000,4,167.54
7550,4850,汉江,61802700,丹江口水库,1632445200000,6,167.54
7550,4390,汉江,61802700,丹江口水库,1632448800000,4,167.52
7540,4840,汉江,61802700,丹江口水库,1632452400000,4,167.51
6520,4830,汉江,61802700,丹江口水库,1632456000000,4,167.5
6520,5110,汉江,61802700,丹江口水库,1632459600000,6,167.5
6510,4940,汉江,61802700,丹江口水库,1632463200000,4,167.49
6510,5220,汉江,61802700,丹江口水库,1632466800000,5,167.5
6500,5500,汉江,61802700,丹江口水库,1632470400000,4,167.49
6500,5330,汉江,61802700,丹江口水库,1632474000000,4,167.48
6490,5160,汉江,61802700,丹江口水库,1632477600000,4,167.47
6490,4710,汉江,61802700,丹江口水库,1632481200000,4,167.46
6500,5160,汉江,61802700,丹江口水库,1632484800000,6,167.46
6490,5150,汉江,61802700,丹江口水库,1632488400000,5,167.47
6500,5610,汉江,61802700,丹江口水库,1632492000000,6,167.47
6500,6510,汉江,61802700,丹江口水库,1632495600000,5,167.48
6500,7420,汉江,61802700,丹江口水库,1632499200000,5,167.49
6500,8330,汉江,61802700,丹江口水库,1632502800000,5,167.5
6500,8780,汉江,61802700,丹江口水库,1632506400000,5,167.51
6500,8330,汉江,61802700,丹江口水库,1632510000000,6,167.51
6500,8330,汉江,61802700,丹江口水库,1632513600000,6,167.51
6500,7880,汉江,61802700,丹江口水库,1632517200000,6,167.51
6510,7880,汉江,61802700,丹江口水库,1632520800000,5,167.52
